Basics of the trafficSafety Package
…
# helper function
make_filename(2013)
#> [1] "accident_2013.csv.bz2"
system.file("extdata", make_filename(2013), package = "trafficSafety")
#> [1] "D:/RStudio/M03-RPackages/trafficSafety/inst/extdata/accident_2013.csv.bz2"

Several years worth of data can also be imported using the function fars_read_years which will extract only months and year, saving data from each file as a separate element of the list.

fars_read_years(c(2013, 2014))
#> [[1]]
#> # A tibble: 30,202 x 2
#>    MONTH  year
#>    <dbl> <dbl>
#>  1     1  2013
#>  2     1  2013
#>  3     1  2013
#>  4     1  2013
#>  5     1  2013
#>  6     1  2013
#>  7     1  2013
#>  8     1  2013
#>  9     1  2013
#> 10     1  2013
#> # ... with 30,192 more rows
#> 
#> [[2]]
#> # A tibble: 30,056 x 2
#>    MONTH  year
#>    <dbl> <dbl>
#>  1     1  2014
#>  2     1  2014
#>  3     1  2014
#>  4     1  2014
#>  5     1  2014
#>  6     1  2014
#>  7     1  2014
#>  8     1  2014
#>  9     1  2014
#> 10     1  2014
#> # ... with 30,046 more rows
…
